Starting with data
…
This statement doesn’t produce any output because, as you might recall, assignments don’t display anything. It does give you information on how the data was loaded. Note that some columns are classed as col_double (numbers) and others as col_character (text). This can be useful and important information, because it tells you the type of data R considers it to be. It also helps you check your data. For example, if R would view a column as col_character but you know that it should only contain numbers, then you know that some of the data are probably text, meaning there are errors in your data that need a closer look.

If we want to find out how our data has been loaded, we can visualise the contents of the data frame by typing its name surveys:

surveys

#> # A tibble: 34,786 x 13
#>    record_id month   day  year plot_id species_id sex   hindfoot_length weight
#>        <dbl> <dbl> <dbl> <dbl>   <dbl> <chr>      <chr>           <dbl>  <dbl>
#>  1         1     7    16  1977       2 NL         M                  32     NA
#>  2        72     8    19  1977       2 NL         M                  31     NA
#>  3       224     9    13  1977       2 NL         <NA>               NA     NA
#>  4       266    10    16  1977       2 NL         <NA>               NA     NA
#>  5       349    11    12  1977       2 NL         <NA>               NA     NA
#>  6       363    11    12  1977       2 NL         <NA>               NA     NA
#>  7       435    12    10  1977       2 NL         <NA>               NA     NA
#>  8       506     1     8  1978       2 NL         <NA>               NA     NA
#>  9       588     2    18  1978       2 NL         M                  NA    218
#> 10       661     3    11  1978       2 NL         <NA>               NA     NA
#> # … with 34,776 more rows, and 4 more variables: genus <chr>, species <chr>,
#> #   taxa <chr>, plot_type <chr>
…
